cleaning data
…
Create a new variables

The mutate function also allows the creation of a new variable.

Say we want to create a column showing the ratio of brain weight to
body weight:

msleep <- msleep %>%
  mutate(brain_body_ratio = 100*brainwt/bodywt)

msleep

## # A tibble: 83 x 12
##    name   genus vore  order conservation sleep_total sleep_rem sleep_cycle awake
##    <chr>  <chr> <chr> <chr> <chr>              <dbl>     <dbl>       <dbl> <dbl>
##  1 Cheet~ Acin~ carni Carn~ lc                   726      NA        NA      11.9
##  2 Owl m~ Aotus omni  Prim~ <NA>                1020       1.8      NA       7  
##  3 Mount~ Aplo~ herbi Rode~ nt                   864       2.4      NA       9.6
##  4 Great~ Blar~ omni  Sori~ lc                   894       2.3       0.133   9.1
##  5 Cow    Bos   herbi Arti~ domesticated         240       0.7       0.667  20  
##  6 Three~ Brad~ herbi Pilo~ <NA>                 864       2.2       0.767   9.6
##  7 North~ Call~ carni Carn~ vu                   522       1.4       0.383  15.3
##  8 Vespe~ Calo~ <NA>  Rode~ <NA>                 420      NA        NA      17  
##  9 Dog    Canis carni Carn~ domesticated         606       2.9       0.333  13.9
## 10 Roe d~ Capr~ herbi Arti~ lc                   180      NA        NA      21  
## # ... with 73 more rows, and 3 more variables: brainwt <dbl>, bodywt <dbl>,
## #   brain_body_ratio <dbl>
…
Rename variable

msleep <- msleep %>%
  rename(sleep_total_mins = sleep_total)

msleep

## # A tibble: 83 x 12
##    name    genus vore  order conservation sleep_total_mins sleep_rem sleep_cycle
##    <chr>   <chr> <chr> <chr> <chr>                   <dbl>     <dbl>       <dbl>
##  1 Cheetah Acin~ carni Carn~ lc                        726      NA        NA    
##  2 Owl mo~ Aotus omni  Prim~ <NA>                     1020       1.8      NA    
##  3 Mounta~ Aplo~ herbi Rode~ nt                        864       2.4      NA    
##  4 Greate~ Blar~ omni  Sori~ lc                        894       2.3       0.133
##  5 Cow     Bos   herbi Arti~ domesticated              240       0.7       0.667
##  6 Three-~ Brad~ herbi Pilo~ <NA>                      864       2.2       0.767
##  7 Northe~ Call~ carni Carn~ vu                        522       1.4       0.383
##  8 Vesper~ Calo~ <NA>  Rode~ <NA>                      420      NA        NA    
##  9 Dog     Canis carni Carn~ domesticated              606       2.9       0.333
## 10 Roe de~ Capr~ herbi Arti~ lc                        180      NA        NA    
## # ... with 73 more rows, and 4 more variables: awake <dbl>, brainwt <dbl>,
## #   bodywt <dbl>, brain_body_ratio <dbl>

Select or remove particular variables

# can select each column by name
msleep %>%
  select(name, genus, vore, order, conservation)

## # A tibble: 83 x 5
##    name                       genus       vore  order        conservation
##    <chr>                      <chr>       <chr> <chr>        <chr>       
##  1 Cheetah                    Acinonyx    carni Carnivora    lc          
##  2 Owl monkey                 Aotus       omni  Primates     <NA>        
##  3 Mountain beaver            Aplodontia  herbi Rodentia     nt          
##  4 Greater short-tailed shrew Blarina     omni  Soricomorpha lc          
##  5 Cow                        Bos         herbi Artiodactyla domesticated
##  6 Three-toed sloth           Bradypus    herbi Pilosa       <NA>        
##  7 Northern fur seal          Callorhinus carni Carnivora    vu          
##  8 Vesper mouse               Calomys     <NA>  Rodentia     <NA>        
##  9 Dog                        Canis       carni Carnivora    domesticated
## 10 Roe deer                   Capreolus   herbi Artiodactyla lc          
## # ... with 73 more rows

# or by range
msleep %>%
  select(name:conservation)

## # A tibble: 83 x 5
##    name                       genus       vore  order        conservation
##    <chr>                      <chr>       <chr> <chr>        <chr>       
##  1 Cheetah                    Acinonyx    carni Carnivora    lc          
##  2 Owl monkey                 Aotus       omni  Primates     <NA>        
##  3 Mountain beaver            Aplodontia  herbi Rodentia     nt          
##  4 Greater short-tailed shrew Blarina     omni  Soricomorpha lc          
##  5 Cow                        Bos         herbi Artiodactyla domesticated
##  6 Three-toed sloth           Bradypus    herbi Pilosa       <NA>        
##  7 Northern fur seal          Callorhinus carni Carnivora    vu          
##  8 Vesper mouse               Calomys     <NA>  Rodentia     <NA>        
##  9 Dog                        Canis       carni Carnivora    domesticated
## 10 Roe deer                   Capreolus   herbi Artiodactyla lc          
## # ... with 73 more rows

# remove columns using the - sign
msleep %>%
  select(-genus)

## # A tibble: 83 x 11
##    name    vore  order conservation sleep_total_mins sleep_rem sleep_cycle awake
##    <chr>   <chr> <chr> <chr>                   <dbl>     <dbl>       <dbl> <dbl>
##  1 Cheetah carni Carn~ lc                        726      NA        NA      11.9
##  2 Owl mo~ omni  Prim~ <NA>                     1020       1.8      NA       7  
##  3 Mounta~ herbi Rode~ nt                        864       2.4      NA       9.6
##  4 Greate~ omni  Sori~ lc                        894       2.3       0.133   9.1
##  5 Cow     herbi Arti~ domesticated              240       0.7       0.667  20  
##  6 Three-~ herbi Pilo~ <NA>                      864       2.2       0.767   9.6
##  7 Northe~ carni Carn~ vu                        522       1.4       0.383  15.3
##  8 Vesper~ <NA>  Rode~ <NA>                      420      NA        NA      17  
##  9 Dog     carni Carn~ domesticated              606       2.9       0.333  13.9
## 10 Roe de~ herbi Arti~ lc                        180      NA        NA      21  
## # ... with 73 more rows, and 3 more variables: brainwt <dbl>, bodywt <dbl>,
## #   brain_body_ratio <dbl>
…
